SystemC Two-bit Counter/TwoBitCounter.vcd
$date
     May 21, 2022       19:35:24
$end

$version
 SystemC 2.3.4_pub_rev_20190614-Accellera --- Apr 26 2022 19:23:13
$end

$timescale
     1 ps
$end

$scope module SystemC $end
$var wire    1  aaaaa  clock       $end
$var wire    1  aaaab  q0       $end
$var wire    1  aaaac  q1       $end
$upscope $end
$enddefinitions  $end

$comment
All initial values are dumped below at time 0 sec = 0 timescale units.
$end

$dumpvars
1aaaaa
0aaaab
0aaaac
$end

#2
0aaaaa

#4
1aaaaa
1aaaab

#6
0aaaaa

#8
1aaaaa
0aaaab

#10
0aaaaa

#12
1aaaaa
1aaaab
1aaaac

#14
0aaaaa

#16
1aaaaa
0aaaab

#18
0aaaaa

#20
1aaaaa
1aaaab
0aaaac

#22
0aaaaa

#24
1aaaaa
0aaaab

#26
0aaaaa

#28
1aaaaa
1aaaab
1aaaac

#30
0aaaaa

#32
1aaaaa
0aaaab

#34
0aaaaa

#36
1aaaaa
1aaaab
0aaaac

#38
0aaaaa

#40
1aaaaa
0aaaab

#42
0aaaaa

#44
1aaaaa
1aaaab
1aaaac

#46
0aaaaa

#48
1aaaaa
0aaaab

#50
0aaaaa

#52
1aaaaa
1aaaab
0aaaac

#54
0aaaaa

#56
1aaaaa
0aaaab

#58
0aaaaa

#60
1aaaaa
1aaaab
1aaaac

#62
0aaaaa

#64
1aaaaa
0aaaab

#66
0aaaaa

#68
1aaaaa
1aaaab
0aaaac

#70
0aaaaa

#72
1aaaaa
0aaaab

#74
0aaaaa

#76
1aaaaa
1aaaab
1aaaac

#78
0aaaaa

#80
1aaaaa
0aaaab

#82
0aaaaa

#84
1aaaaa
1aaaab
0aaaac

#86
0aaaaa

#88
1aaaaa
0aaaab

#90
0aaaaa

#92
1aaaaa
1aaaab
1aaaac

#94
0aaaaa

#96
1aaaaa
0aaaab

